Project-1-Data-Exploration
…
thefts_train <- thefts_ts %>%
  filter(year(Month) <= 2017)
raw_count.model <- thefts_train %>%
  model(
    naive = NAIVE(NumThefts),
    snaive = SNAIVE(NumThefts),
    mean = MEAN(NumThefts),
    lm = RW(NumThefts ~ drift()),
    
  ) 
raw_count.model.forecast <- raw_count.model %>%
  forecast(h = "2 years")
raw_count.model.forecast

## # A fable: 96 x 4 [1M]
## # Key:     .model [4]
##    .model    Month        NumThefts .mean
##    <chr>     <mth>           <dist> <dbl>
##  1 naive  2018 Jan  N(5396, 380777)  5396
##  2 naive  2018 Feb  N(5396, 761555)  5396
##  3 naive  2018 Mar N(5396, 1142332)  5396
##  4 naive  2018 Apr N(5396, 1523109)  5396
##  5 naive  2018 May N(5396, 1903887)  5396
##  6 naive  2018 Jun N(5396, 2284664)  5396
##  7 naive  2018 Jul N(5396, 2665441)  5396
##  8 naive  2018 Aug   N(5396, 3e+06)  5396
##  9 naive  2018 Sep N(5396, 3426996)  5396
## 10 naive  2018 Oct N(5396, 3807774)  5396
## #  with 86 more rows
…
Forecasting Number of Thefts Per Capita

raw_count.model <- thefts_train %>%
  model(
    naive = NAIVE(TheftsPer1000),
    snaive = SNAIVE(TheftsPer1000),
    mean = MEAN(TheftsPer1000),
    lm = RW(TheftsPer1000 ~ drift()),
    
  ) 
raw_count.model.forecast <- raw_count.model %>%
  forecast(h = "2 years")
raw_count.model.forecast

## # A fable: 96 x 4 [1M]
## # Key:     .model [4]
##    .model    Month TheftsPer1000 .mean
##    <chr>     <mth>        <dist> <dbl>
##  1 naive  2018 Jan   N(1, 0.014)  1.04
##  2 naive  2018 Feb   N(1, 0.028)  1.04
##  3 naive  2018 Mar   N(1, 0.041)  1.04
##  4 naive  2018 Apr   N(1, 0.055)  1.04
##  5 naive  2018 May   N(1, 0.069)  1.04
##  6 naive  2018 Jun   N(1, 0.083)  1.04
##  7 naive  2018 Jul   N(1, 0.096)  1.04
##  8 naive  2018 Aug    N(1, 0.11)  1.04
##  9 naive  2018 Sep    N(1, 0.12)  1.04
## 10 naive  2018 Oct    N(1, 0.14)  1.04
## #  with 86 more rows
…
